sv xil_defaultlib "/opt/Xilinx/Vivado/2016.2/data/ip/xpm/xpm_cdc/hdl/xpm_cdc.sv" --include "../../../../RD53_Emulation.srcs/sources_1/ip/ila_commands/ila_v6_1_1/hdl/verilog" --include "../../../../RD53_Emulation.srcs/sources_1/ip/ila_commands/ltlib_v1_0_0/hdl/verilog" --include "../../../../RD53_Emulation.srcs/sources_1/ip/ila_commands/xsdbm_v1_1_3/hdl/verilog" --include "../../../../RD53_Emulation.srcs/sources_1/ip/ila_commands/xsdbs_v1_0_2/hdl/verilog"
sv xil_defaultlib "/opt/Xilinx/Vivado/2016.2/data/ip/xpm/xpm_memory/hdl/xpm_memory_base.sv" --include "../../../../RD53_Emulation.srcs/sources_1/ip/ila_commands/ila_v6_1_1/hdl/verilog" --include "../../../../RD53_Emulation.srcs/sources_1/ip/ila_commands/ltlib_v1_0_0/hdl/verilog" --include "../../../../RD53_Emulation.srcs/sources_1/ip/ila_commands/xsdbm_v1_1_3/hdl/verilog" --include "../../../../RD53_Emulation.srcs/sources_1/ip/ila_commands/xsdbs_v1_0_2/hdl/verilog"
sv xil_defaultlib "/opt/Xilinx/Vivado/2016.2/data/ip/xpm/xpm_memory/hdl/xpm_memory_dpdistram.sv" --include "../../../../RD53_Emulation.srcs/sources_1/ip/ila_commands/ila_v6_1_1/hdl/verilog" --include "../../../../RD53_Emulation.srcs/sources_1/ip/ila_commands/ltlib_v1_0_0/hdl/verilog" --include "../../../../RD53_Emulation.srcs/sources_1/ip/ila_commands/xsdbm_v1_1_3/hdl/verilog" --include "../../../../RD53_Emulation.srcs/sources_1/ip/ila_commands/xsdbs_v1_0_2/hdl/verilog"
sv xil_defaultlib "/opt/Xilinx/Vivado/2016.2/data/ip/xpm/xpm_memory/hdl/xpm_memory_dprom.sv" --include "../../../../RD53_Emulation.srcs/sources_1/ip/ila_commands/ila_v6_1_1/hdl/verilog" --include "../../../../RD53_Emulation.srcs/sources_1/ip/ila_commands/ltlib_v1_0_0/hdl/verilog" --include "../../../../RD53_Emulation.srcs/sources_1/ip/ila_commands/xsdbm_v1_1_3/hdl/verilog" --include "../../../../RD53_Emulation.srcs/sources_1/ip/ila_commands/xsdbs_v1_0_2/hdl/verilog"
sv xil_defaultlib "/opt/Xilinx/Vivado/2016.2/data/ip/xpm/xpm_memory/hdl/xpm_memory_sdpram.sv" --include "../../../../RD53_Emulation.srcs/sources_1/ip/ila_commands/ila_v6_1_1/hdl/verilog" --include "../../../../RD53_Emulation.srcs/sources_1/ip/ila_commands/ltlib_v1_0_0/hdl/verilog" --include "../../../../RD53_Emulation.srcs/sources_1/ip/ila_commands/xsdbm_v1_1_3/hdl/verilog" --include "../../../../RD53_Emulation.srcs/sources_1/ip/ila_commands/xsdbs_v1_0_2/hdl/verilog"
sv xil_defaultlib "/opt/Xilinx/Vivado/2016.2/data/ip/xpm/xpm_memory/hdl/xpm_memory_spram.sv" --include "../../../../RD53_Emulation.srcs/sources_1/ip/ila_commands/ila_v6_1_1/hdl/verilog" --include "../../../../RD53_Emulation.srcs/sources_1/ip/ila_commands/ltlib_v1_0_0/hdl/verilog" --include "../../../../RD53_Emulation.srcs/sources_1/ip/ila_commands/xsdbm_v1_1_3/hdl/verilog" --include "../../../../RD53_Emulation.srcs/sources_1/ip/ila_commands/xsdbs_v1_0_2/hdl/verilog"
sv xil_defaultlib "/opt/Xilinx/Vivado/2016.2/data/ip/xpm/xpm_memory/hdl/xpm_memory_sprom.sv" --include "../../../../RD53_Emulation.srcs/sources_1/ip/ila_commands/ila_v6_1_1/hdl/verilog" --include "../../../../RD53_Emulation.srcs/sources_1/ip/ila_commands/ltlib_v1_0_0/hdl/verilog" --include "../../../../RD53_Emulation.srcs/sources_1/ip/ila_commands/xsdbm_v1_1_3/hdl/verilog" --include "../../../../RD53_Emulation.srcs/sources_1/ip/ila_commands/xsdbs_v1_0_2/hdl/verilog"
sv xil_defaultlib "/opt/Xilinx/Vivado/2016.2/data/ip/xpm/xpm_memory/hdl/xpm_memory_tdpram.sv" --include "../../../../RD53_Emulation.srcs/sources_1/ip/ila_commands/ila_v6_1_1/hdl/verilog" --include "../../../../RD53_Emulation.srcs/sources_1/ip/ila_commands/ltlib_v1_0_0/hdl/verilog" --include "../../../../RD53_Emulation.srcs/sources_1/ip/ila_commands/xsdbm_v1_1_3/hdl/verilog" --include "../../../../RD53_Emulation.srcs/sources_1/ip/ila_commands/xsdbs_v1_0_2/hdl/verilog"
verilog xil_defaultlib "../../../../RD53_Emulation.srcs/sources_1/ip/ila_commands/sim/ila_commands.v" --include "../../../../RD53_Emulation.srcs/sources_1/ip/ila_commands/ila_v6_1_1/hdl/verilog" --include "../../../../RD53_Emulation.srcs/sources_1/ip/ila_commands/ltlib_v1_0_0/hdl/verilog" --include "../../../../RD53_Emulation.srcs/sources_1/ip/ila_commands/xsdbm_v1_1_3/hdl/verilog" --include "../../../../RD53_Emulation.srcs/sources_1/ip/ila_commands/xsdbs_v1_0_2/hdl/verilog"

verilog xil_defaultlib "glbl.v"

nosort
