xpm_cdc.sv,systemverilog,xil_defaultlib,../../../../../../../../../../opt/Xilinx/Vivado/2016.2/data/ip/xpm/xpm_cdc/hdl/xpm_cdc.sv,incdir="../../../../RD53_Emulation.srcs/sources_1/ip/ila_3/ila_v6_1_1/hdl/verilog"incdir="../../../../RD53_Emulation.srcs/sources_1/ip/ila_3/ltlib_v1_0_0/hdl/verilog"incdir="../../../../RD53_Emulation.srcs/sources_1/ip/ila_3/xsdbm_v1_1_3/hdl/verilog"incdir="../../../../RD53_Emulation.srcs/sources_1/ip/ila_3/xsdbs_v1_0_2/hdl/verilog"
xpm_memory_base.sv,systemverilog,xil_defaultlib,../../../../../../../../../../opt/Xilinx/Vivado/2016.2/data/ip/xpm/xpm_memory/hdl/xpm_memory_base.sv,incdir="../../../../RD53_Emulation.srcs/sources_1/ip/ila_3/ila_v6_1_1/hdl/verilog"incdir="../../../../RD53_Emulation.srcs/sources_1/ip/ila_3/ltlib_v1_0_0/hdl/verilog"incdir="../../../../RD53_Emulation.srcs/sources_1/ip/ila_3/xsdbm_v1_1_3/hdl/verilog"incdir="../../../../RD53_Emulation.srcs/sources_1/ip/ila_3/xsdbs_v1_0_2/hdl/verilog"
xpm_memory_dpdistram.sv,systemverilog,xil_defaultlib,../../../../../../../../../../opt/Xilinx/Vivado/2016.2/data/ip/xpm/xpm_memory/hdl/xpm_memory_dpdistram.sv,incdir="../../../../RD53_Emulation.srcs/sources_1/ip/ila_3/ila_v6_1_1/hdl/verilog"incdir="../../../../RD53_Emulation.srcs/sources_1/ip/ila_3/ltlib_v1_0_0/hdl/verilog"incdir="../../../../RD53_Emulation.srcs/sources_1/ip/ila_3/xsdbm_v1_1_3/hdl/verilog"incdir="../../../../RD53_Emulation.srcs/sources_1/ip/ila_3/xsdbs_v1_0_2/hdl/verilog"
xpm_memory_dprom.sv,systemverilog,xil_defaultlib,../../../../../../../../../../opt/Xilinx/Vivado/2016.2/data/ip/xpm/xpm_memory/hdl/xpm_memory_dprom.sv,incdir="../../../../RD53_Emulation.srcs/sources_1/ip/ila_3/ila_v6_1_1/hdl/verilog"incdir="../../../../RD53_Emulation.srcs/sources_1/ip/ila_3/ltlib_v1_0_0/hdl/verilog"incdir="../../../../RD53_Emulation.srcs/sources_1/ip/ila_3/xsdbm_v1_1_3/hdl/verilog"incdir="../../../../RD53_Emulation.srcs/sources_1/ip/ila_3/xsdbs_v1_0_2/hdl/verilog"
xpm_memory_sdpram.sv,systemverilog,xil_defaultlib,../../../../../../../../../../opt/Xilinx/Vivado/2016.2/data/ip/xpm/xpm_memory/hdl/xpm_memory_sdpram.sv,incdir="../../../../RD53_Emulation.srcs/sources_1/ip/ila_3/ila_v6_1_1/hdl/verilog"incdir="../../../../RD53_Emulation.srcs/sources_1/ip/ila_3/ltlib_v1_0_0/hdl/verilog"incdir="../../../../RD53_Emulation.srcs/sources_1/ip/ila_3/xsdbm_v1_1_3/hdl/verilog"incdir="../../../../RD53_Emulation.srcs/sources_1/ip/ila_3/xsdbs_v1_0_2/hdl/verilog"
xpm_memory_spram.sv,systemverilog,xil_defaultlib,../../../../../../../../../../opt/Xilinx/Vivado/2016.2/data/ip/xpm/xpm_memory/hdl/xpm_memory_spram.sv,incdir="../../../../RD53_Emulation.srcs/sources_1/ip/ila_3/ila_v6_1_1/hdl/verilog"incdir="../../../../RD53_Emulation.srcs/sources_1/ip/ila_3/ltlib_v1_0_0/hdl/verilog"incdir="../../../../RD53_Emulation.srcs/sources_1/ip/ila_3/xsdbm_v1_1_3/hdl/verilog"incdir="../../../../RD53_Emulation.srcs/sources_1/ip/ila_3/xsdbs_v1_0_2/hdl/verilog"
xpm_memory_sprom.sv,systemverilog,xil_defaultlib,../../../../../../../../../../opt/Xilinx/Vivado/2016.2/data/ip/xpm/xpm_memory/hdl/xpm_memory_sprom.sv,incdir="../../../../RD53_Emulation.srcs/sources_1/ip/ila_3/ila_v6_1_1/hdl/verilog"incdir="../../../../RD53_Emulation.srcs/sources_1/ip/ila_3/ltlib_v1_0_0/hdl/verilog"incdir="../../../../RD53_Emulation.srcs/sources_1/ip/ila_3/xsdbm_v1_1_3/hdl/verilog"incdir="../../../../RD53_Emulation.srcs/sources_1/ip/ila_3/xsdbs_v1_0_2/hdl/verilog"
xpm_memory_tdpram.sv,systemverilog,xil_defaultlib,../../../../../../../../../../opt/Xilinx/Vivado/2016.2/data/ip/xpm/xpm_memory/hdl/xpm_memory_tdpram.sv,incdir="../../../../RD53_Emulation.srcs/sources_1/ip/ila_3/ila_v6_1_1/hdl/verilog"incdir="../../../../RD53_Emulation.srcs/sources_1/ip/ila_3/ltlib_v1_0_0/hdl/verilog"incdir="../../../../RD53_Emulation.srcs/sources_1/ip/ila_3/xsdbm_v1_1_3/hdl/verilog"incdir="../../../../RD53_Emulation.srcs/sources_1/ip/ila_3/xsdbs_v1_0_2/hdl/verilog"
xpm_VCOMP.vhd,vhdl,xpm,../../../../../../../../../../opt/Xilinx/Vivado/2016.2/data/ip/xpm/xpm_VCOMP.vhd,incdir="../../../../RD53_Emulation.srcs/sources_1/ip/ila_3/ila_v6_1_1/hdl/verilog"incdir="../../../../RD53_Emulation.srcs/sources_1/ip/ila_3/ltlib_v1_0_0/hdl/verilog"incdir="../../../../RD53_Emulation.srcs/sources_1/ip/ila_3/xsdbm_v1_1_3/hdl/verilog"incdir="../../../../RD53_Emulation.srcs/sources_1/ip/ila_3/xsdbs_v1_0_2/hdl/verilog"
ila_3.v,verilog,xil_defaultlib,../../../../RD53_Emulation.srcs/sources_1/ip/ila_3/sim/ila_3.v,incdir="../../../../RD53_Emulation.srcs/sources_1/ip/ila_3/ila_v6_1_1/hdl/verilog"incdir="../../../../RD53_Emulation.srcs/sources_1/ip/ila_3/ltlib_v1_0_0/hdl/verilog"incdir="../../../../RD53_Emulation.srcs/sources_1/ip/ila_3/xsdbm_v1_1_3/hdl/verilog"incdir="../../../../RD53_Emulation.srcs/sources_1/ip/ila_3/xsdbs_v1_0_2/hdl/verilog"
glbl.v,Verilog,xil_defaultlib,glbl.v
