xpm_cdc.sv,systemverilog,xil_defaultlib,../../../../../../../opt/Xilinx/Vivado/2016.2/data/ip/xpm/xpm_cdc/hdl/xpm_cdc.sv,incdir="../../../ipstatic/clk_wiz_v5_3_1"incdir="../../../ipstatic/clk_wiz_v5_3_1"
xpm_memory_base.sv,systemverilog,xil_defaultlib,../../../../../../../opt/Xilinx/Vivado/2016.2/data/ip/xpm/xpm_memory/hdl/xpm_memory_base.sv,incdir="../../../ipstatic/clk_wiz_v5_3_1"incdir="../../../ipstatic/clk_wiz_v5_3_1"
xpm_memory_dpdistram.sv,systemverilog,xil_defaultlib,../../../../../../../opt/Xilinx/Vivado/2016.2/data/ip/xpm/xpm_memory/hdl/xpm_memory_dpdistram.sv,incdir="../../../ipstatic/clk_wiz_v5_3_1"incdir="../../../ipstatic/clk_wiz_v5_3_1"
xpm_memory_dprom.sv,systemverilog,xil_defaultlib,../../../../../../../opt/Xilinx/Vivado/2016.2/data/ip/xpm/xpm_memory/hdl/xpm_memory_dprom.sv,incdir="../../../ipstatic/clk_wiz_v5_3_1"incdir="../../../ipstatic/clk_wiz_v5_3_1"
xpm_memory_sdpram.sv,systemverilog,xil_defaultlib,../../../../../../../opt/Xilinx/Vivado/2016.2/data/ip/xpm/xpm_memory/hdl/xpm_memory_sdpram.sv,incdir="../../../ipstatic/clk_wiz_v5_3_1"incdir="../../../ipstatic/clk_wiz_v5_3_1"
xpm_memory_spram.sv,systemverilog,xil_defaultlib,../../../../../../../opt/Xilinx/Vivado/2016.2/data/ip/xpm/xpm_memory/hdl/xpm_memory_spram.sv,incdir="../../../ipstatic/clk_wiz_v5_3_1"incdir="../../../ipstatic/clk_wiz_v5_3_1"
xpm_memory_sprom.sv,systemverilog,xil_defaultlib,../../../../../../../opt/Xilinx/Vivado/2016.2/data/ip/xpm/xpm_memory/hdl/xpm_memory_sprom.sv,incdir="../../../ipstatic/clk_wiz_v5_3_1"incdir="../../../ipstatic/clk_wiz_v5_3_1"
xpm_memory_tdpram.sv,systemverilog,xil_defaultlib,../../../../../../../opt/Xilinx/Vivado/2016.2/data/ip/xpm/xpm_memory/hdl/xpm_memory_tdpram.sv,incdir="../../../ipstatic/clk_wiz_v5_3_1"incdir="../../../ipstatic/clk_wiz_v5_3_1"
xpm_VCOMP.vhd,vhdl,xpm,../../../../../../../opt/Xilinx/Vivado/2016.2/data/ip/xpm/xpm_VCOMP.vhd,incdir="../../../ipstatic/clk_wiz_v5_3_1"incdir="../../../ipstatic/clk_wiz_v5_3_1"
clk_wiz_2_clk_wiz.v,verilog,xil_defaultlib,../../../../RD53_Emulation.srcs/clk_wiz_2/ip/clk_wiz_2_1/clk_wiz_2_clk_wiz.v,incdir="../../../ipstatic/clk_wiz_v5_3_1"incdir="../../../ipstatic/clk_wiz_v5_3_1"
clk_wiz_2.v,verilog,xil_defaultlib,../../../../RD53_Emulation.srcs/clk_wiz_2/ip/clk_wiz_2_1/clk_wiz_2.v,incdir="../../../ipstatic/clk_wiz_v5_3_1"incdir="../../../ipstatic/clk_wiz_v5_3_1"
glbl.v,Verilog,xil_defaultlib,glbl.v
